%YAML 1.1
%TAG !u! tag:unity3d.com,2011:
--- !u!114 &11400000
MonoBehaviour:
  m_ObjectHideFlags: 0
  m_CorrespondingSourceObject: {fileID: 0}
  m_PrefabInstance: {fileID: 0}
  m_PrefabAsset: {fileID: 0}
  m_GameObject: {fileID: 0}
  m_Enabled: 1
  m_EditorHideFlags: 0
  m_Script: {fileID: 11500000, guid: cd55d45f4a62b7a49ba5ca0cf3c57fd7, type: 3}
  m_Name: Jim 01
  m_EditorClassIdentifier: 
  Character: {fileID: 11400000, guid: d381c92f02efe4042a061dcba915df0d, type: 2}
  StarCost: 1
  StartDialog: {fileID: 11400000, guid: 6354ae681c114c64ca0f6d5e556e018e, type: 2}
