%YAML 1.1
%TAG !u! tag:unity3d.com,2011:
--- !u!114 &11400000
MonoBehaviour:
  m_ObjectHideFlags: 0
  m_CorrespondingSourceObject: {fileID: 0}
  m_PrefabInstance: {fileID: 0}
  m_PrefabAsset: {fileID: 0}
  m_GameObject: {fileID: 0}
  m_Enabled: 1
  m_EditorHideFlags: 0
  m_Script: {fileID: 11500000, guid: 8aaeee01866c4757ac03265073d56bb5, type: 3}
  m_Name: Level2
  m_EditorClassIdentifier: 
  Objective: {fileID: 11400000, guid: d57cce86311550f40ae49948ecdfc392, type: 2}
  Layout: {fileID: 11400000, guid: 442e24aadfa0aac4f8b66a9be258e87e, type: 2}
  DayMessage: 'Day 2: Collating reports'
