%YAML 1.1
%TAG !u! tag:unity3d.com,2011:
--- !u!114 &11400000
MonoBehaviour:
  m_ObjectHideFlags: 0
  m_CorrespondingSourceObject: {fileID: 0}
  m_PrefabInstance: {fileID: 0}
  m_PrefabAsset: {fileID: 0}
  m_GameObject: {fileID: 0}
  m_Enabled: 1
  m_EditorHideFlags: 0
  m_Script: {fileID: 11500000, guid: 55672d8429fd41a1a852bcae9dd3b395, type: 3}
  m_Name: Obj3-30Gems
  m_EditorClassIdentifier: 
  Type: 2
  Gem: 0
  Count: 30
  Day: 'Day 3: Stealing office supplies'
  Message: Clear 30 Office Supplies!
